Gen Art
…
library(gifski)
library(purrr)

library(ggfx)
library(flametree)
library(ggforce)

# inspect mpg data
mpg

# A tibble: 234 × 11
   manufacturer model      displ  year   cyl trans drv     cty   hwy fl    class
   <chr>        <chr>      <dbl> <int> <int> <chr> <chr> <int> <int> <chr> <chr>
 1 audi         a4           1.8  1999     4 auto… f        18    29 p     comp…
 2 audi         a4           1.8  1999     4 manu… f        21    29 p     comp…
 3 audi         a4           2    2008     4 manu… f        20    31 p     comp…
 4 audi         a4           2    2008     4 auto… f        21    30 p     comp…
 5 audi         a4           2.8  1999     6 auto… f        16    26 p     comp…
 6 audi         a4           2.8  1999     6 manu… f        18    26 p     comp…
 7 audi         a4           3.1  2008     6 auto… f        18    27 p     comp…
 8 audi         a4 quattro   1.8  1999     4 manu… 4        18    26 p     comp…
 9 audi         a4 quattro   1.8  1999     4 auto… 4        16    25 p     comp…
10 audi         a4 quattro   2    2008     4 manu… 4        20    28 p     comp…
# ℹ 224 more rows
…
Ex II:

set.seed(1)
n <- 50
dat <- tibble(
  x0 = runif(n),
  y0 = runif(n),
  x1 = x0 + runif(n, min = -.2, max = .2),
  y1 = y0 + runif(n, min = -.2, max = .2),
  shade = runif(n), 
  size = runif(n)
)
dat

# A tibble: 50 × 6
       x0     y0    x1      y1 shade  size
    <dbl>  <dbl> <dbl>   <dbl> <dbl> <dbl>
 1 0.266  0.478  0.327  0.523  0.268 0.762
 2 0.372  0.861  0.313  0.884  0.219 0.933
 3 0.573  0.438  0.481  0.370  0.517 0.471
 4 0.908  0.245  1.11   0.226  0.269 0.604
 5 0.202  0.0707 0.255  0.0709 0.181 0.485
 6 0.898  0.0995 0.784 -0.0282 0.519 0.109
 7 0.945  0.316  0.796  0.328  0.563 0.248
 8 0.661  0.519  0.652  0.349  0.129 0.499
 9 0.629  0.662  0.799  0.573  0.256 0.373
10 0.0618 0.407  0.101  0.292  0.718 0.935
# ℹ 40 more rows
…
# Generate 800 numbers between 0 and 1 for the y-coordinates
y_coords <- seq(from = 0, to = 1, length.out = 800)  

# Create a grid with the x and y coordinates
canvas <- long_grid(x = x_coords, y = y_coords)  

# Apply the perlin noise function to the grid to generate a 'paint' column
canvas <- canvas |> 
  mutate(paint = gen_perlin(x, y, frequency = 10, seed = 1234))

# Display the resulting canvas with the "perlin" nose applied
canvas

# A tibble: 640,000 × 3
       x       y  paint
   <dbl>   <dbl>  <dbl>
 1     0 0       0     
 2     0 0.00125 0.0125
 3     0 0.00250 0.0249
 4     0 0.00375 0.0370
 5     0 0.00501 0.0489
 6     0 0.00626 0.0604
 7     0 0.00751 0.0713
 8     0 0.00876 0.0817
 9     0 0.0100  0.0915
10     0 0.0113  0.101 
# ℹ 639,990 more rows
…
Iteration, Tiles, and Pixels

tree <- flametree_grow(
  seed = 1, 
  time = 9, 
  angle = c(-15, 15, 30)
)
tree

# A tibble: 3,069 × 12
   coord_x coord_y id_tree id_time id_path id_leaf id_pathtree id_step seg_deg
     <dbl>   <dbl>   <int>   <int>   <int> <lgl>   <chr>         <int>   <dbl>
 1  -0.429    0          1       1       1 FALSE   1_1               0      90
 2  -0.429    0.5        1       1       1 FALSE   1_1               1      90
 3  -0.429    1          1       1       1 FALSE   1_1               2      90
 4  -0.429    1          1       2       2 FALSE   1_2               0      75
 5  -0.429    1.45       1       2       2 FALSE   1_2               1      75
 6  -0.196    1.87       1       2       2 FALSE   1_2               2      75
 7  -0.429    1          1       2       3 FALSE   1_3               0      75
 8  -0.429    1.3        1       2       3 FALSE   1_3               1      75
 9  -0.274    1.58       1       2       3 FALSE   1_3               2      75
10  -0.196    1.87       1       3       4 FALSE   1_4               0     105
# ℹ 3,059 more rows
# ℹ 3 more variables: seg_len <dbl>, seg_col <dbl>, seg_wid <dbl>
…
